{
    "name": "QuickytoolsCharacterInputActions",
    "maps": [
        {
            "name": "Player",
            "id": "8beb8cfc-61a5-40a5-b408-57248e12c334",
            "actions": [
                {
                    "name": "Move",
                    "type": "Value",
                    "id": "1640027e-4eb8-41f5-aeb9-c3467d2398fe",
                    "expectedControlType": "Vector2",
                    "processors": "",
                    "interactions": ""
                },
                {
                    "name": "Jump",
                    "type": "Button",
                    "id": "dbbd3801-83e8-4289-81a6-9a2f7d3a46f4",
                    "expectedControlType": "Button",
                    "processors": "",
                    "interactions": "Press(behavior=2)"
                },
                {
                    "name": "Look",
                    "type": "Value",
                    "id": "53de5569-8259-42c3-8460-62ffc1fc9b3e",
                    "expectedControlType": "Vector2",
                    "processors": "",
                    "interactions": ""
                },
                {
                    "name": "ChangeSpeed",
                    "type": "Value",
                    "id": "ca9a87fa-5565-4365-b3f1-4d3e43b19f52",
                    "expectedControlType": "Axis",
                    "processors": "",
                    "interactions": ""
                }
            ],
            "bindings": [
                {
                    "name": "WASD",
                    "id": "9d91ba05-271d-4e6e-8e8c-0ae5a2d453f6",
                    "path": "2DVector",
                    "interactions": "",
                    "processors": "",
                    "groups": "",
                    "action": "Move",
                    "isComposite": true,
                    "isPartOfComposite": false
                },
                {
                    "name": "up",
                    "id": "c6fe2040-5272-4633-8001-0c4f114cb73e",
                    "path": "<Keyboard>/w",
                    "interactions": "",
                    "processors": "",
                    "groups": "All",
                    "action": "Move",
                    "isComposite": false,
                    "isPartOfComposite": true
                },
                {
                    "name": "down",
                    "id": "ae090ed8-53d7-4d11-8d49-e633cba441f7",
                    "path": "<Keyboard>/s",
                    "interactions": "",
                    "processors": "",
                    "groups": "All",
                    "action": "Move",
                    "isComposite": false,
                    "isPartOfComposite": true
                },
                {
                    "name": "left",
                    "id": "b2aa70e9-d42b-4593-ac63-914fad22ecd1",
                    "path": "<Keyboard>/a",
                    "interactions": "",
                    "processors": "",
                    "groups": "All",
                    "action": "Move",
                    "isComposite": false,
                    "isPartOfComposite": true
                },
                {
                    "name": "right",
                    "id": "69945e76-636f-49bc-8e1b-98509115d57c",
                    "path": "<Keyboard>/d",
                    "interactions": "",
                    "processors": "",
                    "groups": "All",
                    "action": "Move",
                    "isComposite": false,
                    "isPartOfComposite": true
                },
                {
                    "name": "",
                    "id": "08a2553a-2d73-445c-b670-1d2756d3429b",
                    "path": "<Gamepad>/leftStick",
                    "interactions": "",
                    "processors": "",
                    "groups": "All",
                    "action": "Move",
                    "isComposite": false,
                    "isPartOfComposite": false
                },
                {
                    "name": "",
                    "id": "948d1342-a8f0-4a45-97ac-66b8927b8679",
                    "path": "<Keyboard>/space",
                    "interactions": "",
                    "processors": "",
                    "groups": "All",
                    "action": "Jump",
                    "isComposite": false,
                    "isPartOfComposite": false
                },
                {
                    "name": "",
                    "id": "460b542a-27ab-47f1-b32b-785fe6e1b1d3",
                    "path": "<Mouse>/delta",
                    "interactions": "",
                    "processors": "",
                    "groups": "All",
                    "action": "Look",
                    "isComposite": false,
                    "isPartOfComposite": false
                },
                {
                    "name": "",
                    "id": "b07413f9-78bc-4909-af72-cc0176cd6693",
                    "path": "<Gamepad>/rightStick",
                    "interactions": "",
                    "processors": "",
                    "groups": "All",
                    "action": "Look",
                    "isComposite": false,
                    "isPartOfComposite": false
                },
                {
                    "name": "MinusPlus",
                    "id": "6c5abbbd-29bd-4dfb-b816-2c0b03c4882c",
                    "path": "1DAxis",
                    "interactions": "",
                    "processors": "",
                    "groups": "",
                    "action": "ChangeSpeed",
                    "isComposite": true,
                    "isPartOfComposite": false
                },
                {
                    "name": "negative",
                    "id": "3b3d8e59-d868-477d-ac0f-dc66ace4013f",
                    "path": "<Keyboard>/minus",
                    "interactions": "",
                    "processors": "",
                    "groups": "",
                    "action": "ChangeSpeed",
                    "isComposite": false,
                    "isPartOfComposite": true
                },
                {
                    "name": "positive",
                    "id": "721ade8a-ee1e-4e6a-a189-64f111f37f4d",
                    "path": "<Keyboard>/equals",
                    "interactions": "",
                    "processors": "",
                    "groups": "",
                    "action": "ChangeSpeed",
                    "isComposite": false,
                    "isPartOfComposite": true
                }
            ]
        }
    ],
    "controlSchemes": [
        {
            "name": "All",
            "bindingGroup": "All",
            "devices": [
                {
                    "devicePath": "<Keyboard>",
                    "isOptional": true,
                    "isOR": false
                },
                {
                    "devicePath": "<Mouse>",
                    "isOptional": true,
                    "isOR": false
                },
                {
                    "devicePath": "<Gamepad>",
                    "isOptional": true,
                    "isOR": false
                },
                {
                    "devicePath": "<Joystick>",
                    "isOptional": true,
                    "isOR": false
                }
            ]
        }
    ]
}