{
    "name": "Quickytools.CharacterExtract.Editor",
    "rootNamespace": "",
    "references": [
        "Quickytools.CharacterExtract.Runtime"
    ],
    "includePlatforms": [
        "Editor"
    ],
    "excludePlatforms": [],
    "allowUnsafeCode": false,
    "overrideReferences": false,
    "precompiledReferences": [],
    "autoReferenced": true,
    "defineConstraints": [],
    "versionDefines": [],
    "noEngineReferences": false
}